%YAML 1.1
%TAG !u! tag:unity3d.com,2011:
--- !u!29 &1
OcclusionCullingSettings:
  m_ObjectHideFlags: 0
  serializedVersion: 2
  m_OcclusionBakeSettings:
    smallestOccluder: 5
    smallestHole: 0.25
    backfaceThreshold: 100
  m_SceneGUID: 00000000000000000000000000000000
  m_OcclusionCullingData: {fileID: 0}
--- !u!104 &2
RenderSettings:
  m_ObjectHideFlags: 0
  serializedVersion: 8
  m_Fog: 0
  m_FogColor: {r: 0.5, g: 0.5, b: 0.5, a: 1}
  m_FogMode: 3
  m_FogDensity: 0.01
  m_LinearFogStart: 0
  m_LinearFogEnd: 300
  m_AmbientSkyColor: {r: 0.212, g: 0.227, b: 0.259, a: 1}
  m_AmbientEquatorColor: {r: 0.114, g: 0.125, b: 0.133, a: 1}
  m_AmbientGroundColor: {r: 0.047, g: 0.043, b: 0.035, a: 1}
  m_AmbientIntensity: 1
  m_AmbientMode: 0
  m_SubtractiveShadowColor: {r: 0.42, g: 0.478, b: 0.627, a: 1}
  m_SkyboxMaterial: {fileID: 2100000, guid: baece638f819142c7bcd16a691d89196, type: 2}
  m_HaloStrength: 0.5
  m_FlareStrength: 1
  m_FlareFadeSpeed: 3
  m_HaloTexture: {fileID: 0}
  m_SpotCookie: {fileID: 10001, guid: 0000000000000000e000000000000000, type: 0}
  m_DefaultReflectionMode: 0
  m_DefaultReflectionResolution: 128
  m_ReflectionBounces: 1
  m_ReflectionIntensity: 1
  m_CustomReflection: {fileID: 0}
  m_Sun: {fileID: 0}
  m_IndirectSpecularColor: {r: 0, g: 0, b: 0, a: 1}
--- !u!157 &4
LightmapSettings:
  m_ObjectHideFlags: 0
  serializedVersion: 9
  m_GIWorkflowMode: 0
  m_GISettings:
    serializedVersion: 2
    m_BounceScale: 1
    m_IndirectOutputScale: 1
    m_AlbedoBoost: 1
    m_TemporalCoherenceThreshold: 1
    m_EnvironmentLightingMode: 0
    m_EnableBakedLightmaps: 1
    m_EnableRealtimeLightmaps: 1
  m_LightmapEditorSettings:
    serializedVersion: 8
    m_Resolution: 2
    m_BakeResolution: 40
    m_TextureWidth: 1024
    m_TextureHeight: 1024
    m_AO: 0
    m_AOMaxDistance: 1
    m_CompAOExponent: 0
    m_CompAOExponentDirect: 0
    m_Padding: 2
    m_LightmapParameters: {fileID: 0}
    m_LightmapsBakeMode: 1
    m_TextureCompression: 1
    m_FinalGather: 0
    m_FinalGatherFiltering: 1
    m_FinalGatherRayCount: 1024
    m_ReflectionCompression: 2
    m_MixedBakeMode: 1
    m_BakeBackend: 0
    m_PVRSampling: 1
    m_PVRDirectSampleCount: 32
    m_PVRSampleCount: 500
    m_PVRBounces: 2
    m_PVRFiltering: 0
    m_PVRFilteringMode: 1
    m_PVRCulling: 1
    m_PVRFilteringGaussRadiusDirect: 1
    m_PVRFilteringGaussRadiusIndirect: 5
    m_PVRFilteringGaussRadiusAO: 2
    m_PVRFilteringAtrousColorSigma: 1
    m_PVRFilteringAtrousNormalSigma: 1
    m_PVRFilteringAtrousPositionSigma: 1
  m_LightingDataAsset: {fileID: 0}
  m_ShadowMaskMode: 2
--- !u!196 &5
NavMeshSettings:
  serializedVersion: 2
  m_ObjectHideFlags: 0
  m_BuildSettings:
    serializedVersion: 2
    agentTypeID: 0
    agentRadius: 0.5
    agentHeight: 2
    agentSlope: 45
    agentClimb: 0.4
    ledgeDropHeight: 0
    maxJumpAcrossDistance: 0
    minRegionArea: 2
    manualCellSize: 0
    cellSize: 0.16666667
    manualTileSize: 0
    tileSize: 256
    accuratePlacement: 0
  m_NavMeshData: {fileID: 0}
--- !u!1 &10974982
GameObject:
  m_ObjectHideFlags: 0
  m_PrefabParentObject: {fileID: 0}
  m_PrefabInternal: {fileID: 0}
  serializedVersion: 5
  m_Component:
  - component: {fileID: 10974983}
  m_Layer: 0
  m_Name: Frontiers
  m_TagString: Untagged
  m_Icon: {fileID: 0}
  m_NavMeshLayer: 0
  m_StaticEditorFlags: 0
  m_IsActive: 0
--- !u!4 &10974983
Transform:
  m_ObjectHideFlags: 0
  m_PrefabParentObject: {fileID: 0}
  m_PrefabInternal: {fileID: 0}
  m_GameObject: {fileID: 10974982}
  m_LocalRotation: {x: 0, y: 0, z: 0, w: 1}
  m_LocalPosition: {x: 0, y: 0, z: 0}
  m_LocalScale: {x: 1.0002, y: 1.0002, z: 1.0002}
  m_Children: []
  m_Father: {fileID: 2006556272}
  m_RootOrder: 2
  m_LocalEulerAnglesHint: {x: 0, y: 0, z: 0}
--- !u!1 &635498444
GameObject:
  m_ObjectHideFlags: 0
  m_PrefabParentObject: {fileID: 123604, guid: 970d37e15aa5940cd95073db97338118, type: 2}
  m_PrefabInternal: {fileID: 0}
  serializedVersion: 5
  m_Component:
  - component: {fileID: 635498445}
  - component: {fileID: 635498447}
  - component: {fileID: 635498446}
  m_Layer: 0
  m_Name: WorldMapGlobeEarth
  m_TagString: Untagged
  m_Icon: {fileID: 0}
  m_NavMeshLayer: 0
  m_StaticEditorFlags: 0
  m_IsActive: 1
--- !u!4 &635498445
Transform:
  m_ObjectHideFlags: 0
  m_PrefabParentObject: {fileID: 416260, guid: 970d37e15aa5940cd95073db97338118, type: 2}
  m_PrefabInternal: {fileID: 0}
  m_GameObject: {fileID: 635498444}
  m_LocalRotation: {x: 0, y: 0, z: 0, w: 1}
  m_LocalPosition: {x: 0, y: 0, z: 0}
  m_LocalScale: {x: 1, y: 1, z: 1}
  m_Children: []
  m_Father: {fileID: 2006556272}
  m_RootOrder: 0
  m_LocalEulerAnglesHint: {x: 0, y: 0, z: 0}
--- !u!23 &635498446
MeshRenderer:
  m_ObjectHideFlags: 0
  m_PrefabParentObject: {fileID: 2369220, guid: 970d37e15aa5940cd95073db97338118,
    type: 2}
  m_PrefabInternal: {fileID: 0}
  m_GameObject: {fileID: 635498444}
  m_Enabled: 1
  m_CastShadows: 1
  m_ReceiveShadows: 1
  m_MotionVectors: 1
  m_LightProbeUsage: 1
  m_ReflectionProbeUsage: 1
  m_Materials:
  - {fileID: 0}
  m_StaticBatchInfo:
    firstSubMesh: 0
    subMeshCount: 0
  m_StaticBatchRoot: {fileID: 0}
  m_ProbeAnchor: {fileID: 0}
  m_LightProbeVolumeOverride: {fileID: 0}
  m_ScaleInLightmap: 1
  m_PreserveUVs: 1
  m_IgnoreNormalsForChartDetection: 0
  m_ImportantGI: 0
  m_SelectedEditorRenderState: 3
  m_MinimumChartSize: 4
  m_AutoUVMaxDistance: 0.5
  m_AutoUVMaxAngle: 89
  m_LightmapParameters: {fileID: 0}
  m_SortingLayerID: 0
  m_SortingLayer: 0
  m_SortingOrder: 0
--- !u!33 &635498447
MeshFilter:
  m_ObjectHideFlags: 0
  m_PrefabParentObject: {fileID: 3384598, guid: 970d37e15aa5940cd95073db97338118,
    type: 2}
  m_PrefabInternal: {fileID: 0}
  m_GameObject: {fileID: 635498444}
  m_Mesh: {fileID: 0}
--- !u!1 &646135167
GameObject:
  m_ObjectHideFlags: 0
  m_PrefabParentObject: {fileID: 0}
  m_PrefabInternal: {fileID: 0}
  serializedVersion: 5
  m_Component:
  - component: {fileID: 646135168}
  - component: {fileID: 646135170}
  - component: {fileID: 646135169}
  m_Layer: 0
  m_Name: Cursor
  m_TagString: Untagged
  m_Icon: {fileID: 0}
  m_NavMeshLayer: 0
  m_StaticEditorFlags: 0
  m_IsActive: 1
--- !u!4 &646135168
Transform:
  m_ObjectHideFlags: 0
  m_PrefabParentObject: {fileID: 0}
  m_PrefabInternal: {fileID: 0}
  m_GameObject: {fileID: 646135167}
  m_LocalRotation: {x: 0, y: 0, z: 0, w: 1}
  m_LocalPosition: {x: 0, y: 0, z: 0}
  m_LocalScale: {x: 1, y: 1, z: 1}
  m_Children: []
  m_Father: {fileID: 2006556272}
  m_RootOrder: 5
  m_LocalEulerAnglesHint: {x: 0, y: 0, z: 0}
--- !u!23 &646135169
MeshRenderer:
  m_ObjectHideFlags: 0
  m_PrefabParentObject: {fileID: 0}
  m_PrefabInternal: {fileID: 0}
  m_GameObject: {fileID: 646135167}
  m_Enabled: 1
  m_CastShadows: 0
  m_ReceiveShadows: 0
  m_MotionVectors: 1
  m_LightProbeUsage: 1
  m_ReflectionProbeUsage: 0
  m_Materials:
  - {fileID: 0}
  m_StaticBatchInfo:
    firstSubMesh: 0
    subMeshCount: 0
  m_StaticBatchRoot: {fileID: 0}
  m_ProbeAnchor: {fileID: 0}
  m_LightProbeVolumeOverride: {fileID: 0}
  m_ScaleInLightmap: 1
  m_PreserveUVs: 0
  m_IgnoreNormalsForChartDetection: 0
  m_ImportantGI: 0
  m_SelectedEditorRenderState: 3
  m_MinimumChartSize: 4
  m_AutoUVMaxDistance: 0.5
  m_AutoUVMaxAngle: 89
  m_LightmapParameters: {fileID: 0}
  m_SortingLayerID: 0
  m_SortingLayer: 0
  m_SortingOrder: 0
--- !u!33 &646135170
MeshFilter:
  m_ObjectHideFlags: 0
  m_PrefabParentObject: {fileID: 0}
  m_PrefabInternal: {fileID: 0}
  m_GameObject: {fileID: 646135167}
  m_Mesh: {fileID: 0}
--- !u!1 &750709662
GameObject:
  m_ObjectHideFlags: 0
  m_PrefabParentObject: {fileID: 0}
  m_PrefabInternal: {fileID: 0}
  serializedVersion: 5
  m_Component:
  - component: {fileID: 750709663}
  - component: {fileID: 750709665}
  - component: {fileID: 750709664}
  m_Layer: 0
  m_Name: LongitudeLines
  m_TagString: Untagged
  m_Icon: {fileID: 0}
  m_NavMeshLayer: 0
  m_StaticEditorFlags: 0
  m_IsActive: 1
--- !u!4 &750709663
Transform:
  m_ObjectHideFlags: 0
  m_PrefabParentObject: {fileID: 0}
  m_PrefabInternal: {fileID: 0}
  m_GameObject: {fileID: 750709662}
  m_LocalRotation: {x: 0, y: 0, z: 0, w: 1}
  m_LocalPosition: {x: 0, y: 0, z: 0}
  m_LocalScale: {x: 1, y: 1, z: 1}
  m_Children: []
  m_Father: {fileID: 2006556272}
  m_RootOrder: 7
  m_LocalEulerAnglesHint: {x: 0, y: 0, z: 0}
--- !u!23 &750709664
MeshRenderer:
  m_ObjectHideFlags: 0
  m_PrefabParentObject: {fileID: 0}
  m_PrefabInternal: {fileID: 0}
  m_GameObject: {fileID: 750709662}
  m_Enabled: 1
  m_CastShadows: 0
  m_ReceiveShadows: 0
  m_MotionVectors: 1
  m_LightProbeUsage: 1
  m_ReflectionProbeUsage: 0
  m_Materials:
  - {fileID: 0}
  m_StaticBatchInfo:
    firstSubMesh: 0
    subMeshCount: 0
  m_StaticBatchRoot: {fileID: 0}
  m_ProbeAnchor: {fileID: 0}
  m_LightProbeVolumeOverride: {fileID: 0}
  m_ScaleInLightmap: 1
  m_PreserveUVs: 0
  m_IgnoreNormalsForChartDetection: 0
  m_ImportantGI: 0
  m_SelectedEditorRenderState: 3
  m_MinimumChartSize: 4
  m_AutoUVMaxDistance: 0.5
  m_AutoUVMaxAngle: 89
  m_LightmapParameters: {fileID: 0}
  m_SortingLayerID: 0
  m_SortingLayer: 0
  m_SortingOrder: 0
--- !u!33 &750709665
MeshFilter:
  m_ObjectHideFlags: 0
  m_PrefabParentObject: {fileID: 0}
  m_PrefabInternal: {fileID: 0}
  m_GameObject: {fileID: 750709662}
  m_Mesh: {fileID: 0}
--- !u!1 &761358209
GameObject:
  m_ObjectHideFlags: 0
  m_PrefabParentObject: {fileID: 0}
  m_PrefabInternal: {fileID: 0}
  serializedVersion: 5
  m_Component:
  - component: {fileID: 761358210}
  - component: {fileID: 761358211}
  m_Layer: 0
  m_Name: Mount Points
  m_TagString: Untagged
  m_Icon: {fileID: 0}
  m_NavMeshLayer: 0
  m_StaticEditorFlags: 0
  m_IsActive: 1
--- !u!4 &761358210
Transform:
  m_ObjectHideFlags: 0
  m_PrefabParentObject: {fileID: 0}
  m_PrefabInternal: {fileID: 0}
  m_GameObject: {fileID: 761358209}
  m_LocalRotation: {x: 0, y: 0, z: 0, w: 1}
  m_LocalPosition: {x: 0, y: 0, z: 0}
  m_LocalScale: {x: 1, y: 1, z: 1}
  m_Children: []
  m_Father: {fileID: 2006556272}
  m_RootOrder: 4
  m_LocalEulerAnglesHint: {x: 0, y: 0, z: 0}
--- !u!114 &761358211
MonoBehaviour:
  m_ObjectHideFlags: 0
  m_PrefabParentObject: {fileID: 0}
  m_PrefabInternal: {fileID: 0}
  m_GameObject: {fileID: 761358209}
  m_Enabled: 1
  m_EditorHideFlags: 0
  m_Script: {fileID: 11500000, guid: b06c5ef98471a4a0896b496f3a3c06c9, type: 3}
  m_Name: 
  m_EditorClassIdentifier: 
--- !u!1 &1017923440
GameObject:
  m_ObjectHideFlags: 0
  m_PrefabParentObject: {fileID: 0}
  m_PrefabInternal: {fileID: 0}
  serializedVersion: 5
  m_Component:
  - component: {fileID: 1017923441}
  - component: {fileID: 1017923442}
  - component: {fileID: 1017923443}
  m_Layer: 5
  m_Name: DemoGraffiti
  m_TagString: Untagged
  m_Icon: {fileID: 0}
  m_NavMeshLayer: 0
  m_StaticEditorFlags: 0
  m_IsActive: 1
--- !u!4 &1017923441
Transform:
  m_ObjectHideFlags: 0
  m_PrefabParentObject: {fileID: 0}
  m_PrefabInternal: {fileID: 0}
  m_GameObject: {fileID: 1017923440}
  m_LocalRotation: {x: 0, y: 0, z: 0, w: 1}
  m_LocalPosition: {x: 0, y: 0, z: 35}
  m_LocalScale: {x: 1, y: 1, z: 1}
  m_Children: []
  m_Father: {fileID: 0}
  m_RootOrder: 2
  m_LocalEulerAnglesHint: {x: 0, y: 0, z: 0}
--- !u!114 &1017923442
MonoBehaviour:
  m_ObjectHideFlags: 0
  m_PrefabParentObject: {fileID: 0}
  m_PrefabInternal: {fileID: 0}
  m_GameObject: {fileID: 1017923440}
  m_Enabled: 1
  m_EditorHideFlags: 0
  m_Script: {fileID: 11500000, guid: 423e18d5e578f42d79c30b57cdeb2c3d, type: 3}
  m_Name: 
  m_EditorClassIdentifier: 
--- !u!114 &1017923443
MonoBehaviour:
  m_ObjectHideFlags: 0
  m_PrefabParentObject: {fileID: 0}
  m_PrefabInternal: {fileID: 0}
  m_GameObject: {fileID: 1017923440}
  m_Enabled: 1
  m_EditorHideFlags: 0
  m_Script: {fileID: 11500000, guid: 0fa87f3d2e3694dc5858cf6262414011, type: 3}
  m_Name: 
  m_EditorClassIdentifier: 
  colorPicker: {fileID: 0}
  setColor: {r: 0, g: 0.803, b: 1, a: 0}
  useDefinedSize: 0
  textureWidth: 360
  textureHeight: 120
  showPicker: 0
--- !u!1 &1399076850
GameObject:
  m_ObjectHideFlags: 0
  m_PrefabParentObject: {fileID: 0}
  m_PrefabInternal: {fileID: 0}
  serializedVersion: 5
  m_Component:
  - component: {fileID: 1399076855}
  - component: {fileID: 1399076854}
  - component: {fileID: 1399076853}
  - component: {fileID: 1399076852}
  - component: {fileID: 1399076851}
  m_Layer: 0
  m_Name: Main Camera
  m_TagString: MainCamera
  m_Icon: {fileID: 0}
  m_NavMeshLayer: 0
  m_StaticEditorFlags: 0
  m_IsActive: 1
--- !u!81 &1399076851
AudioListener:
  m_ObjectHideFlags: 0
  m_PrefabParentObject: {fileID: 0}
  m_PrefabInternal: {fileID: 0}
  m_GameObject: {fileID: 1399076850}
  m_Enabled: 1
--- !u!124 &1399076852
Behaviour:
  m_ObjectHideFlags: 0
  m_PrefabParentObject: {fileID: 0}
  m_PrefabInternal: {fileID: 0}
  m_GameObject: {fileID: 1399076850}
  m_Enabled: 1
--- !u!92 &1399076853
Behaviour:
  m_ObjectHideFlags: 0
  m_PrefabParentObject: {fileID: 0}
  m_PrefabInternal: {fileID: 0}
  m_GameObject: {fileID: 1399076850}
  m_Enabled: 1
--- !u!20 &1399076854
Camera:
  m_ObjectHideFlags: 0
  m_PrefabParentObject: {fileID: 0}
  m_PrefabInternal: {fileID: 0}
  m_GameObject: {fileID: 1399076850}
  m_Enabled: 1
  serializedVersion: 2
  m_ClearFlags: 1
  m_BackGroundColor: {r: 0, g: 0, b: 0, a: 0.019607844}
  m_NormalizedViewPortRect:
    serializedVersion: 2
    x: 0
    y: 0
    width: 1
    height: 1
  near clip plane: 0.01
  far clip plane: 1000
  field of view: 60
  orthographic: 0
  orthographic size: 5
  m_Depth: -1
  m_CullingMask:
    serializedVersion: 2
    m_Bits: 4294967295
  m_RenderingPath: -1
  m_TargetTexture: {fileID: 0}
  m_TargetDisplay: 0
  m_TargetEye: 3
  m_HDR: 0
  m_AllowMSAA: 1
  m_ForceIntoRT: 0
  m_OcclusionCulling: 1
  m_StereoConvergence: 10
  m_StereoSeparation: 0.022
  m_StereoMirrorMode: 0
--- !u!4 &1399076855
Transform:
  m_ObjectHideFlags: 0
  m_PrefabParentObject: {fileID: 0}
  m_PrefabInternal: {fileID: 0}
  m_GameObject: {fileID: 1399076850}
  m_LocalRotation: {x: 0, y: 0, z: 0, w: 1}
  m_LocalPosition: {x: 0, y: 0, z: 10}
  m_LocalScale: {x: 1, y: 1, z: 1}
  m_Children: []
  m_Father: {fileID: 0}
  m_RootOrder: 0
  m_LocalEulerAnglesHint: {x: 0, y: 0, z: 0}
--- !u!1 &1426582891
GameObject:
  m_ObjectHideFlags: 0
  m_PrefabParentObject: {fileID: 159228, guid: 970d37e15aa5940cd95073db97338118, type: 2}
  m_PrefabInternal: {fileID: 0}
  serializedVersion: 5
  m_Component:
  - component: {fileID: 2006556272}
  - component: {fileID: 1426582893}
  - component: {fileID: 1426582892}
  m_Layer: 0
  m_Name: WorldMapGlobe
  m_TagString: Untagged
  m_Icon: {fileID: 0}
  m_NavMeshLayer: 0
  m_StaticEditorFlags: 0
  m_IsActive: 1
--- !u!114 &1426582892
MonoBehaviour:
  m_ObjectHideFlags: 0
  m_PrefabParentObject: {fileID: 11466088, guid: 970d37e15aa5940cd95073db97338118,
    type: 2}
  m_PrefabInternal: {fileID: 0}
  m_GameObject: {fileID: 1426582891}
  m_Enabled: 1
  m_EditorHideFlags: 0
  m_Script: {fileID: 11500000, guid: c6f0ddc92ea9a4caeb773f6e1d1a6277, type: 3}
  m_Name: 
  m_EditorClassIdentifier: 
  isDirty: 0
  requestMapperCamShot: 1
  provinceFrontiersPoints: []
  _showCities: 1
  _citiesColor: {r: 1, g: 1, b: 1, a: 1}
  _citiesRegionCapitalColor: {r: 0, g: 1, b: 1, a: 1}
  _citiesCountryCapitalColor: {r: 1, g: 1, b: 0, a: 1}
  _cityIconSize: 0.2
  _minPopulation: 3000
  _cityClassAlwaysShow: 4
  _combineCityMeshes: 1
  _enableCountryHighlight: 1
  _countryHighlightMaxScreenAreaSize: 1
  _showFrontiers: 0
  _showCoastalFrontiers: 0
  _fillColor: {r: 1, g: 0, b: 0, a: 0.241}
  _frontiersColor: {r: 0.341, g: 0.897, b: 0.491, a: 0.403}
  _showOutline: 1
  _outlineColor: {r: 0, g: 0, b: 0, a: 0.291}
  _frontiersDetail: 0
  _showCountryNames: 0
  _countryLabelsEnableAutomaticFade: 1
  _countryLabelsAutoFadeMaxHeight: 0.3
  _countryLabelsFadePerFrame: 25
  _countryLabelsAutoFadeMaxHeightFallOff: 0.2
  _countryLabelsAutoFadeMinHeight: 0.02
  _countryLabelsAutoFadeMinHeightFallOff: 0.02
  _countryLabelsAbsoluteMinimumSize: 0.41
  _countryLabelsSize: 0.25
  _labelsQuality: 2
  _labelsRenderMethod: 0
  _labelsElevation: 0
  _showLabelsShadow: 1
  _countryLabelsColor: {r: 1, g: 1, b: 1, a: 0.903}
  _countryLabelsShadowColor: {r: 0, g: 0, b: 0, a: 1}
  _countryLabelsFont: {fileID: 0}
  _labelsFaceToCamera: 0
  _enableCountryEnclaves: 0
  _contrast: 1.02
  _brightness: 1.05
  _showInlandFrontiers: 0
  _showWorld: 1
  _autoRotationSpeed: 0
  _inlandFrontiersColor: {r: 0.48142228, g: 0.8235294, b: 0.43598616, a: 1}
  _earthStyle: 2
  _earthScenicLightDirection: {x: -3.31, y: -0.22, z: 1.37}
  _earthScenicAtmosphereIntensity: 1
  _earthScenicGlowIntensity: 1.45
  _earthGlowScatter: 1
  _earthInvertedMode: 0
  _earthColor: {r: 0, g: 0, b: 0, a: 1}
  _earthHighDensityMesh: 1
  _VREnabled: 0
  _navigationTime: 4
  _tilt: 0
  _navigationMode: 0
  _allowUserKeys: 0
  _dragConstantSpeed: 0
  _keepStraight: 0
  _allowUserRotation: 1
  _centerOnRightClick: 1
  _rightClickRotates: 1
  _rightClickRotatingClockwise: 0
  _respectOtherUI: 1
  _allowUserZoom: 1
  _zoomMaxDistance: 50
  _zoomMinDistance: 0
  _invertZoomDirection: 0
  _mouseDragSensitivity: 0.5
  _mouseWheelSensitivity: 0.5
  constraintPosition: {x: 0, y: 0, z: 0}
  constraintAngle: 0
  constraintPositionEnabled: 0
  _followDeviceGPS: 0
  _showCursor: 1
  _cursorColor: {r: 0.8039216, g: 0.3529412, b: 0.23529412, a: 1}
  _cursorFollowMouse: 1
  _cursorAllwaysVisible: 0
  _showLatitudeLines: 1
  _latitudeStepping: 15
  _showLongitudeLines: 1
  _longitudeStepping: 15
  _gridColor: {r: 0.16, g: 0.33, b: 0.498, a: 1}
  _gridMode: 0
  _showProvinces: 0
  _drawAllProvinces: 0
  _provincesFillColor: {r: 0, g: 0, b: 1, a: 0.7}
  _provincesColor: {r: 1, g: 1, b: 1, a: 1}
  _enableProvinceEnclaves: 0
  _tileMaxConcurrentDownloads: 10
  _tileEnableLocalCache: 1
  _tileMaxLocalCacheSize: 200
  _tileServer: 10
  _tileResolutionFactor: 1.5
  _tileServerAPIKey: 
  _tileDebugErrors: 1
  _tilePreloadTiles: 0
--- !u!135 &1426582893
SphereCollider:
  m_ObjectHideFlags: 0
  m_PrefabParentObject: {fileID: 13543300, guid: 970d37e15aa5940cd95073db97338118,
    type: 2}
  m_PrefabInternal: {fileID: 0}
  m_GameObject: {fileID: 1426582891}
  m_Material: {fileID: 0}
  m_IsTrigger: 0
  m_Enabled: 1
  serializedVersion: 2
  m_Radius: 0.5
  m_Center: {x: 0, y: 0, z: 0}
--- !u!1 &1582631838
GameObject:
  m_ObjectHideFlags: 0
  m_PrefabParentObject: {fileID: 0}
  m_PrefabInternal: {fileID: 0}
  serializedVersion: 5
  m_Component:
  - component: {fileID: 1582631839}
  - component: {fileID: 1582631841}
  - component: {fileID: 1582631840}
  m_Layer: 0
  m_Name: LatitudeLines
  m_TagString: Untagged
  m_Icon: {fileID: 0}
  m_NavMeshLayer: 0
  m_StaticEditorFlags: 0
  m_IsActive: 1
--- !u!4 &1582631839
Transform:
  m_ObjectHideFlags: 0
  m_PrefabParentObject: {fileID: 0}
  m_PrefabInternal: {fileID: 0}
  m_GameObject: {fileID: 1582631838}
  m_LocalRotation: {x: 0, y: 0, z: 0, w: 1}
  m_LocalPosition: {x: 0, y: 0, z: 0}
  m_LocalScale: {x: 1, y: 1, z: 1}
  m_Children: []
  m_Father: {fileID: 2006556272}
  m_RootOrder: 6
  m_LocalEulerAnglesHint: {x: 0, y: 0, z: 0}
--- !u!23 &1582631840
MeshRenderer:
  m_ObjectHideFlags: 0
  m_PrefabParentObject: {fileID: 0}
  m_PrefabInternal: {fileID: 0}
  m_GameObject: {fileID: 1582631838}
  m_Enabled: 1
  m_CastShadows: 0
  m_ReceiveShadows: 0
  m_MotionVectors: 1
  m_LightProbeUsage: 1
  m_ReflectionProbeUsage: 0
  m_Materials:
  - {fileID: 0}
  m_StaticBatchInfo:
    firstSubMesh: 0
    subMeshCount: 0
  m_StaticBatchRoot: {fileID: 0}
  m_ProbeAnchor: {fileID: 0}
  m_LightProbeVolumeOverride: {fileID: 0}
  m_ScaleInLightmap: 1
  m_PreserveUVs: 0
  m_IgnoreNormalsForChartDetection: 0
  m_ImportantGI: 0
  m_SelectedEditorRenderState: 3
  m_MinimumChartSize: 4
  m_AutoUVMaxDistance: 0.5
  m_AutoUVMaxAngle: 89
  m_LightmapParameters: {fileID: 0}
  m_SortingLayerID: 0
  m_SortingLayer: 0
  m_SortingOrder: 0
--- !u!33 &1582631841
MeshFilter:
  m_ObjectHideFlags: 0
  m_PrefabParentObject: {fileID: 0}
  m_PrefabInternal: {fileID: 0}
  m_GameObject: {fileID: 1582631838}
  m_Mesh: {fileID: 0}
--- !u!1 &1985518504
GameObject:
  m_ObjectHideFlags: 0
  m_PrefabParentObject: {fileID: 0}
  m_PrefabInternal: {fileID: 0}
  serializedVersion: 5
  m_Component:
  - component: {fileID: 1985518505}
  - component: {fileID: 1985518506}
  m_Layer: 0
  m_Name: Cities
  m_TagString: Untagged
  m_Icon: {fileID: 0}
  m_NavMeshLayer: 0
  m_StaticEditorFlags: 0
  m_IsActive: 1
--- !u!4 &1985518505
Transform:
  m_ObjectHideFlags: 0
  m_PrefabParentObject: {fileID: 0}
  m_PrefabInternal: {fileID: 0}
  m_GameObject: {fileID: 1985518504}
  m_LocalRotation: {x: 0, y: 0, z: 0, w: 1}
  m_LocalPosition: {x: 0, y: 0, z: 0}
  m_LocalScale: {x: 1, y: 1, z: 1}
  m_Children: []
  m_Father: {fileID: 2006556272}
  m_RootOrder: 3
  m_LocalEulerAnglesHint: {x: 0, y: 0, z: 0}
--- !u!114 &1985518506
MonoBehaviour:
  m_ObjectHideFlags: 0
  m_PrefabParentObject: {fileID: 0}
  m_PrefabInternal: {fileID: 0}
  m_GameObject: {fileID: 1985518504}
  m_Enabled: 1
  m_EditorHideFlags: 0
  m_Script: {fileID: 11500000, guid: 0be62bb3cbdf24291b0b2eff022c95bf, type: 3}
  m_Name: 
  m_EditorClassIdentifier: 
--- !u!1 &1988486031
GameObject:
  m_ObjectHideFlags: 0
  m_PrefabParentObject: {fileID: 177062, guid: 970d37e15aa5940cd95073db97338118, type: 2}
  m_PrefabInternal: {fileID: 0}
  serializedVersion: 5
  m_Component:
  - component: {fileID: 1988486032}
  - component: {fileID: 1988486034}
  - component: {fileID: 1988486033}
  m_Layer: 0
  m_Name: WorldMapGlobeAtmosphere
  m_TagString: Untagged
  m_Icon: {fileID: 0}
  m_NavMeshLayer: 0
  m_StaticEditorFlags: 0
  m_IsActive: 1
--- !u!4 &1988486032
Transform:
  m_ObjectHideFlags: 0
  m_PrefabParentObject: {fileID: 444456, guid: 970d37e15aa5940cd95073db97338118, type: 2}
  m_PrefabInternal: {fileID: 0}
  m_GameObject: {fileID: 1988486031}
  m_LocalRotation: {x: 0, y: 0, z: 0, w: 1}
  m_LocalPosition: {x: 0, y: 0, z: 0}
  m_LocalScale: {x: 1.025, y: 1.025, z: 1.025}
  m_Children: []
  m_Father: {fileID: 2006556272}
  m_RootOrder: 1
  m_LocalEulerAnglesHint: {x: 0, y: 0, z: 0}
--- !u!23 &1988486033
MeshRenderer:
  m_ObjectHideFlags: 0
  m_PrefabParentObject: {fileID: 2333854, guid: 970d37e15aa5940cd95073db97338118,
    type: 2}
  m_PrefabInternal: {fileID: 0}
  m_GameObject: {fileID: 1988486031}
  m_Enabled: 1
  m_CastShadows: 1
  m_ReceiveShadows: 1
  m_MotionVectors: 1
  m_LightProbeUsage: 0
  m_ReflectionProbeUsage: 1
  m_Materials:
  - {fileID: 0}
  m_StaticBatchInfo:
    firstSubMesh: 0
    subMeshCount: 0
  m_StaticBatchRoot: {fileID: 0}
  m_ProbeAnchor: {fileID: 0}
  m_LightProbeVolumeOverride: {fileID: 0}
  m_ScaleInLightmap: 1
  m_PreserveUVs: 0
  m_IgnoreNormalsForChartDetection: 0
  m_ImportantGI: 0
  m_SelectedEditorRenderState: 3
  m_MinimumChartSize: 4
  m_AutoUVMaxDistance: 0.5
  m_AutoUVMaxAngle: 89
  m_LightmapParameters: {fileID: 0}
  m_SortingLayerID: 0
  m_SortingLayer: 0
  m_SortingOrder: 0
--- !u!33 &1988486034
MeshFilter:
  m_ObjectHideFlags: 0
  m_PrefabParentObject: {fileID: 3316892, guid: 970d37e15aa5940cd95073db97338118,
    type: 2}
  m_PrefabInternal: {fileID: 0}
  m_GameObject: {fileID: 1988486031}
  m_Mesh: {fileID: 4300000, guid: 8784879114f624946ab37aa4a373b971, type: 3}
--- !u!4 &2006556272
Transform:
  m_ObjectHideFlags: 0
  m_PrefabParentObject: {fileID: 472228, guid: 970d37e15aa5940cd95073db97338118, type: 2}
  m_PrefabInternal: {fileID: 0}
  m_GameObject: {fileID: 1426582891}
  m_LocalRotation: {x: 0.2395635, y: -0.94116306, z: 0.23470527, w: 0.041652434}
  m_LocalPosition: {x: 0, y: 0, z: 55}
  m_LocalScale: {x: 50, y: 50, z: 50}
  m_Children:
  - {fileID: 635498445}
  - {fileID: 1988486032}
  - {fileID: 10974983}
  - {fileID: 1985518505}
  - {fileID: 761358210}
  - {fileID: 646135168}
  - {fileID: 1582631839}
  - {fileID: 750709663}
  m_Father: {fileID: 0}
  m_RootOrder: 1
  m_LocalEulerAnglesHint: {x: 0, y: 0, z: 0}
