%YAML 1.1
%TAG !u! tag:unity3d.com,2011:
--- !u!1 &123604
GameObject:
  m_ObjectHideFlags: 0
  m_PrefabParentObject: {fileID: 0}
  m_PrefabInternal: {fileID: 100100000}
  serializedVersion: 5
  m_Component:
  - component: {fileID: 416260}
  - component: {fileID: 3384598}
  - component: {fileID: 2369220}
  m_Layer: 0
  m_Name: WorldMapGlobeEarth
  m_TagString: Untagged
  m_Icon: {fileID: 0}
  m_NavMeshLayer: 0
  m_StaticEditorFlags: 0
  m_IsActive: 1
--- !u!1 &159228
GameObject:
  m_ObjectHideFlags: 0
  m_PrefabParentObject: {fileID: 0}
  m_PrefabInternal: {fileID: 100100000}
  serializedVersion: 5
  m_Component:
  - component: {fileID: 472228}
  - component: {fileID: 13543300}
  - component: {fileID: 11466088}
  - component: {fileID: 5428942}
  m_Layer: 0
  m_Name: WorldMapGlobe
  m_TagString: Untagged
  m_Icon: {fileID: 0}
  m_NavMeshLayer: 0
  m_StaticEditorFlags: 0
  m_IsActive: 1
--- !u!1 &177062
GameObject:
  m_ObjectHideFlags: 0
  m_PrefabParentObject: {fileID: 0}
  m_PrefabInternal: {fileID: 100100000}
  serializedVersion: 5
  m_Component:
  - component: {fileID: 444456}
  - component: {fileID: 3316892}
  - component: {fileID: 2333854}
  m_Layer: 0
  m_Name: WorldMapGlobeAtmosphere
  m_TagString: Untagged
  m_Icon: {fileID: 0}
  m_NavMeshLayer: 0
  m_StaticEditorFlags: 0
  m_IsActive: 1
--- !u!4 &416260
Transform:
  m_ObjectHideFlags: 1
  m_PrefabParentObject: {fileID: 0}
  m_PrefabInternal: {fileID: 100100000}
  m_GameObject: {fileID: 123604}
  m_LocalRotation: {x: -0.7071068, y: 0, z: 0, w: 0.7071068}
  m_LocalPosition: {x: 0, y: 0, z: 0}
  m_LocalScale: {x: 1, y: 1, z: 1}
  m_Children: []
  m_Father: {fileID: 472228}
  m_RootOrder: 0
  m_LocalEulerAnglesHint: {x: 0, y: 0, z: 0}
--- !u!4 &444456
Transform:
  m_ObjectHideFlags: 1
  m_PrefabParentObject: {fileID: 0}
  m_PrefabInternal: {fileID: 100100000}
  m_GameObject: {fileID: 177062}
  m_LocalRotation: {x: 0, y: 0, z: 0, w: 1}
  m_LocalPosition: {x: 0, y: 0, z: 0}
  m_LocalScale: {x: 1.025, y: 1.025, z: 1.025}
  m_Children: []
  m_Father: {fileID: 472228}
  m_RootOrder: 1
  m_LocalEulerAnglesHint: {x: 0, y: 0, z: 0}
--- !u!4 &472228
Transform:
  m_ObjectHideFlags: 1
  m_PrefabParentObject: {fileID: 0}
  m_PrefabInternal: {fileID: 100100000}
  m_GameObject: {fileID: 159228}
  m_LocalRotation: {x: 0.17791629, y: -0.976957, z: 0.117581055, w: -0.008689284}
  m_LocalPosition: {x: 0, y: 0, z: 0}
  m_LocalScale: {x: 1, y: 1, z: 1}
  m_Children:
  - {fileID: 416260}
  - {fileID: 444456}
  m_Father: {fileID: 0}
  m_RootOrder: 0
  m_LocalEulerAnglesHint: {x: 0, y: 0, z: 0}
--- !u!23 &2333854
MeshRenderer:
  m_ObjectHideFlags: 1
  m_PrefabParentObject: {fileID: 0}
  m_PrefabInternal: {fileID: 100100000}
  m_GameObject: {fileID: 177062}
  m_Enabled: 1
  m_CastShadows: 0
  m_ReceiveShadows: 1
  m_MotionVectors: 1
  m_LightProbeUsage: 0
  m_ReflectionProbeUsage: 1
  m_Materials:
  - {fileID: 0}
  m_StaticBatchInfo:
    firstSubMesh: 0
    subMeshCount: 0
  m_StaticBatchRoot: {fileID: 0}
  m_ProbeAnchor: {fileID: 0}
  m_LightProbeVolumeOverride: {fileID: 0}
  m_ScaleInLightmap: 1
  m_PreserveUVs: 0
  m_IgnoreNormalsForChartDetection: 0
  m_ImportantGI: 0
  m_SelectedEditorRenderState: 3
  m_MinimumChartSize: 4
  m_AutoUVMaxDistance: 0.5
  m_AutoUVMaxAngle: 89
  m_LightmapParameters: {fileID: 0}
  m_SortingLayerID: 0
  m_SortingLayer: 0
  m_SortingOrder: 0
--- !u!23 &2369220
MeshRenderer:
  m_ObjectHideFlags: 1
  m_PrefabParentObject: {fileID: 0}
  m_PrefabInternal: {fileID: 100100000}
  m_GameObject: {fileID: 123604}
  m_Enabled: 1
  m_CastShadows: 1
  m_ReceiveShadows: 0
  m_MotionVectors: 1
  m_LightProbeUsage: 1
  m_ReflectionProbeUsage: 1
  m_Materials:
  - {fileID: 0}
  m_StaticBatchInfo:
    firstSubMesh: 0
    subMeshCount: 0
  m_StaticBatchRoot: {fileID: 0}
  m_ProbeAnchor: {fileID: 0}
  m_LightProbeVolumeOverride: {fileID: 0}
  m_ScaleInLightmap: 1
  m_PreserveUVs: 1
  m_IgnoreNormalsForChartDetection: 0
  m_ImportantGI: 0
  m_SelectedEditorRenderState: 3
  m_MinimumChartSize: 4
  m_AutoUVMaxDistance: 0.5
  m_AutoUVMaxAngle: 89
  m_LightmapParameters: {fileID: 0}
  m_SortingLayerID: 0
  m_SortingLayer: 0
  m_SortingOrder: 0
--- !u!33 &3316892
MeshFilter:
  m_ObjectHideFlags: 1
  m_PrefabParentObject: {fileID: 0}
  m_PrefabInternal: {fileID: 100100000}
  m_GameObject: {fileID: 177062}
  m_Mesh: {fileID: 4300000, guid: 8784879114f624946ab37aa4a373b971, type: 3}
--- !u!33 &3384598
MeshFilter:
  m_ObjectHideFlags: 1
  m_PrefabParentObject: {fileID: 0}
  m_PrefabInternal: {fileID: 100100000}
  m_GameObject: {fileID: 123604}
  m_Mesh: {fileID: 0}
--- !u!54 &5428942
Rigidbody:
  m_ObjectHideFlags: 1
  m_PrefabParentObject: {fileID: 0}
  m_PrefabInternal: {fileID: 100100000}
  m_GameObject: {fileID: 159228}
  serializedVersion: 2
  m_Mass: 1
  m_Drag: 0
  m_AngularDrag: 0.05
  m_UseGravity: 0
  m_IsKinematic: 1
  m_Interpolate: 0
  m_Constraints: 0
  m_CollisionDetection: 0
--- !u!114 &11466088
MonoBehaviour:
  m_ObjectHideFlags: 1
  m_PrefabParentObject: {fileID: 0}
  m_PrefabInternal: {fileID: 100100000}
  m_GameObject: {fileID: 159228}
  m_Enabled: 1
  m_EditorHideFlags: 0
  m_Script: {fileID: 11500000, guid: c6f0ddc92ea9a4caeb773f6e1d1a6277, type: 3}
  m_Name: 
  m_EditorClassIdentifier: 
  isDirty: 0
  requestMapperCamShot: 0
  provinceFrontiersPoints: []
  _showCities: 1
  _citiesColor: {r: 1, g: 1, b: 1, a: 1}
  _citiesRegionCapitalColor: {r: 0, g: 1, b: 1, a: 1}
  _citiesCountryCapitalColor: {r: 1, g: 1, b: 0, a: 1}
  _cityIconSize: 0.2
  _minPopulation: 1500
  _cityClassAlwaysShow: 0
  _combineCityMeshes: 1
  _enableCountryHighlight: 1
  _countryHighlightMaxScreenAreaSize: 1
  _showFrontiers: 0
  _showCoastalFrontiers: 0
  _fillColor: {r: 1, g: 0, b: 0, a: 0.7}
  _frontiersColor: {r: 0, g: 1, b: 0, a: 1}
  _showOutline: 1
  _outlineColor: {r: 0, g: 0, b: 0, a: 1}
  _frontiersDetail: 0
  _showCountryNames: 1
  _countryLabelsEnableAutomaticFade: 1
  _countryLabelsAutoFadeMaxHeight: 0.3
  _countryLabelsFadePerFrame: 25
  _countryLabelsAutoFadeMaxHeightFallOff: 0.2
  _countryLabelsAutoFadeMinHeight: 0.02
  _countryLabelsAutoFadeMinHeightFallOff: 0.02
  _countryLabelsAbsoluteMinimumSize: 0.5
  _countryLabelsSize: 0.25
  _labelsQuality: 1
  _labelsRenderMethod: 0
  _labelsElevation: 0
  _showLabelsShadow: 1
  _countryLabelsColor: {r: 1, g: 1, b: 1, a: 1}
  _countryLabelsShadowColor: {r: 0, g: 0, b: 0, a: 1}
  _countryLabelsFont: {fileID: 0}
  _labelsFaceToCamera: 0
  _enableCountryEnclaves: 0
  _contrast: 1.02
  _brightness: 1.05
  _showInlandFrontiers: 0
  _showWorld: 1
  _autoRotationSpeed: 0.02
  _inlandFrontiersColor: {r: 0.48717338, g: 0.88235295, b: 0.43468854, a: 1}
  _earthStyle: 6
  _earthScenicLightDirection: {x: -0.5, y: 0.5, z: -1}
  _earthScenicAtmosphereIntensity: 1
  _earthScenicGlowIntensity: 1
  _earthGlowScatter: 1
  _earthInvertedMode: 0
  _earthColor: {r: 0, g: 0, b: 0, a: 1}
  _earthHighDensityMesh: 1
  _VREnabled: 0
  _navigationTime: 4
  _tilt: 0
  _navigationMode: 0
  _allowUserKeys: 0
  _dragConstantSpeed: 0
  _keepStraight: 0
  _allowUserRotation: 1
  _centerOnRightClick: 1
  _rightClickRotates: 1
  _rightClickRotatingClockwise: 0
  _respectOtherUI: 1
  _allowUserZoom: 1
  _zoomMaxDistance: 10
  _zoomMinDistance: 0
  _invertZoomDirection: 0
  _mouseDragSensitivity: 0.5
  _mouseWheelSensitivity: 0.5
  constraintPosition: {x: 0, y: 0, z: 0}
  constraintAngle: 0
  constraintPositionEnabled: 0
  _followDeviceGPS: 0
  _showCursor: 1
  _cursorColor: {r: 0.8039216, g: 0.3529412, b: 0.23529412, a: 1}
  _cursorFollowMouse: 1
  _cursorAllwaysVisible: 0
  _showLatitudeLines: 1
  _latitudeStepping: 15
  _showLongitudeLines: 1
  _longitudeStepping: 15
  _gridColor: {r: 0.16, g: 0.33, b: 0.498, a: 1}
  _gridMode: 0
  _showProvinces: 0
  _drawAllProvinces: 0
  _provincesFillColor: {r: 0, g: 0, b: 1, a: 0.7}
  _provincesColor: {r: 1, g: 1, b: 1, a: 1}
  _enableProvinceEnclaves: 0
  _tileMaxConcurrentDownloads: 10
  _tileEnableLocalCache: 1
  _tileMaxLocalCacheSize: 50
  _tileServer: 10
  _tileResolutionFactor: 1.5
  _tileServerAPIKey: 
  _tileDebugErrors: 1
  _tilePreloadTiles: 0
--- !u!135 &13543300
SphereCollider:
  m_ObjectHideFlags: 1
  m_PrefabParentObject: {fileID: 0}
  m_PrefabInternal: {fileID: 100100000}
  m_GameObject: {fileID: 159228}
  m_Material: {fileID: 0}
  m_IsTrigger: 0
  m_Enabled: 1
  serializedVersion: 2
  m_Radius: 0.5
  m_Center: {x: 0, y: 0, z: 0}
--- !u!1001 &100100000
Prefab:
  m_ObjectHideFlags: 1
  serializedVersion: 2
  m_Modification:
    m_TransformParent: {fileID: 0}
    m_Modifications:
    - target: {fileID: 0}
      propertyPath: m_CastShadows
      value: 0
      objectReference: {fileID: 0}
    - target: {fileID: 0}
      propertyPath: m_ReceiveShadows
      value: 0
      objectReference: {fileID: 0}
    - target: {fileID: 0}
      propertyPath: m_UseGravity
      value: 0
      objectReference: {fileID: 0}
    - target: {fileID: 0}
      propertyPath: m_IsKinematic
      value: 1
      objectReference: {fileID: 0}
    m_RemovedComponents: []
  m_ParentPrefab: {fileID: 0}
  m_RootGameObject: {fileID: 159228}
  m_IsPrefabParent: 1
